%YAML 1.1
%TAG !u! tag:unity3d.com,2011:
--- !u!114 &11400000
MonoBehaviour:
  m_ObjectHideFlags: 0
  m_CorrespondingSourceObject: {fileID: 0}
  m_PrefabInstance: {fileID: 0}
  m_PrefabAsset: {fileID: 0}
  m_GameObject: {fileID: 0}
  m_Enabled: 1
  m_EditorHideFlags: 0
  m_Script: {fileID: 11500000, guid: 3f26d22efd2d04f21b1d50fe9bbf5f33, type: 3}
  m_Name: APFirebaseInfo
  m_EditorClassIdentifier: 
  _enableFirebaseAnalyticsEvent: 1
  _trackProgressionEvent: 1
  _trackAdEvent: 0
  _subscribeToLionEvent: 0
  _subscribeToLionEventUA: 0
