id,d_name,d_proff,title,modelID,d_gender,d_oriention,gender,profession,age,height,fitness,humor,income,fame,intellect,nl
1,Steve,Athlete,Just find me a girl please... Any girl!,201,Male,,Female,NONE,0,0,0,0,0,0,0,
2,Katie,Corporate,A guy.... or a girl.... but has to be an Athlete!,102,Female,B,NONE,Athlete,0,0,0,0,0,0,0,
3,Rafael,Scientist,I would like my partner to be into music!,253,Male,G,NONE,Musician,0,0,0,0,0,0,0,
4,Anne,Influencer,I am looking for someone who is physically fit!,101,Female,,NONE,NONE,0,0,2,0,0,0,0,
5,Sabrina,Corporate,I would like my partner to be taller than me!,151,Female,B,NONE,NONE,0,65,0,0,0,0,0,
6,Rakesh,Scientist,Looking for someone younger than myself!,203,Male,,NONE,NONE,-36,0,0,0,0,0,0,
7,Rachel,Musician,Find me an experienced guy ;) ... older than 25!,153,Female,,Male,NONE,25,0,0,0,0,0,0,
8,Bruce,Athlete,Need a girl who earns more than 1500!,252,Male,B,Female,NONE,0,0,0,0,1499,0,0,
9,Jack,Influencer,Someone taller than me and famous would be perfect,202,Male,B,NONE,NONE,0,66,0,0,0,0,0,
10,Stella,Athlete,I want my partner to be a secret agent!,103,Female,G,NONE,Agent,0,0,0,0,0,0,0,
11,Pam,Musician,I want a guy taller than me! I heard they have bigger... Hearts!,152,Female,,Male,NONE,0,67,0,0,0,0,0,
12,Josh,Influencer,Want a scientist. Hope they help me with homework...,251,Male,,NONE,Scientist,0,0,0,0,0,0,0,
13,Rashid,Athlete,Looking for girl who is younger than me!,253,Male,,Female,NONE,-37,0,0,0,0,0,0,
14,Bella,Musician,Find me a fit woman!,102,Female,G,Female,NONE,0,0,2,0,0,0,0,
15,Rose,Agent,Find me a influencial person!,152,Female,,NONE,Influencer,0,0,0,0,0,0,0,
16,Ben,Musician,A guy who must earn more than 3000!,202,Male,B,Male,NONE,0,0,0,0,2999,0,0,
17,Natasha,Agent,Someone who earns 2000$ atleast! And has a corporate job!,101,Female,B,NONE,Corporate,0,0,0,0,1999,0,0,
18,May,Influencer,Need a very funny guy! Totally wont use him for funny videos!,151,Female,,Male,NONE,0,0,0,2,0,0,0,
19,Manoj,Corporate,Someone fit and funny!,203,Male,,NONE,NONE,0,0,2,2,0,0,0,
20,Lizzy,Scientist,Specimen must be younger than 35 and should very fit!,153,Female,B,NONE,NONE,-35,0,3,0,0,0,0,
21,Chris,Corporate,Must earn more than 4000$ and not older than 35,201,Male,B,NONE,NONE,-36,0,0,0,3999,0,0,
22,Charles,Agent,Looking for a guy who earns atleast 2000$,252,Male,G,Male,NONE,0,0,0,0,1999,0,0,
23,April,Scientist,I want a influencer guy! I promise I wont make him promote my drugs!,103,Female,,Male,Influencer,0,0,0,0,0,0,0,
24,Clint,Agent,I like shorter girls who are funny!,251,Male,,Female,NONE,0,-71,0,2,0,0,0,