%YAML 1.1
%TAG !u! tag:unity3d.com,2011:
--- !u!114 &11400000
MonoBehaviour:
  m_ObjectHideFlags: 0
  m_CorrespondingSourceObject: {fileID: 0}
  m_PrefabInstance: {fileID: 0}
  m_PrefabAsset: {fileID: 0}
  m_GameObject: {fileID: 0}
  m_Enabled: 1
  m_EditorHideFlags: 0
  m_Script: {fileID: 11500000, guid: fb6752084a4494bd78b4a5122ebd3fbf, type: 3}
  m_Name: APFacebookInfo
  m_EditorClassIdentifier: 
  _appName: Getting Married 3D
  _appId: 176477411056555
  _enableFacebookEvent: 1
  _trackProgressionEvent: 0
  _trackAdEvent: 0
  _subscribeToLionEvent: 0
  _subscribeToLionEventUA: 0
